-------- 10/29/2015 3:34:32 PM --------
POIteam Token: 378alYHGnW0dTCaz/CHS1OtrCNbTt0wuA0vheduoJJsLr+jGxnVwGqflIIc+m5hqDDYBHEZgiS+Upx2PalNgl8zUDjbRI4ByFK8YxjMFGlJKqthRFqp/P2m56rTwy4DJjNC+4SmyxY3QU7wkXHRX1Jn4XKGwazkvzCoz4C6dh1JjFBTTMLQfyA==
 POHeader Token User: itech2
PO Header Identity:PO-90065-1
------------------------
-------- 10/29/2015 3:34:32 PM --------
Purchase Order item created successfully PO Item Identity: PO-90065-1 Original PO No is 90663
------------------------
-------- 10/29/2015 3:34:42 PM --------
POIteam Token: 378alYHGnW0dTCaz/CHS1OtrCNbTt0wuA0vheduoJJsLr+jGxnVwGqflIIc+m5hqDDYBHEZgiS+Upx2PalNgl8zUDjbRI4ByFK8YxjMFGlJKqthRFqp/P2m56rTwy4DJjNC+4SmyxY3QU7wkXHRX1Jn4XKGwazkvDk/xXaISHlT20Np4DqeoqQ==
 POHeader Token User: itech2
PO Header Identity:PO-90066-1
------------------------
-------- 10/29/2015 3:34:42 PM --------
Purchase Order item created successfully PO Item Identity: PO-90066-1 Original PO No is 91168
------------------------
-------- 10/29/2015 3:34:48 PM --------
POIteam Token: 378alYHGnW0dTCaz/CHS1OtrCNbTt0wuA0vheduoJJsLr+jGxnVwGqflIIc+m5hqDDYBHEZgiS+Upx2PalNgl8zUDjbRI4ByFK8YxjMFGlJKqthRFqp/P2m56rTwy4DJjNC+4SmyxY3QU7wkXHRX1Jn4XKGwazkvPhv+UeJdydKnR+kpCAzh4Q==
 POHeader Token User: itech2
PO Header Identity:PO-90066-2
------------------------
-------- 10/29/2015 3:34:48 PM --------
Purchase Order item created successfully PO Item Identity: PO-90066-2 Original PO No is 91168
------------------------
-------- 10/29/2015 3:34:57 PM --------
POIteam Token: 378alYHGnW0dTCaz/CHS1OtrCNbTt0wuA0vheduoJJsLr+jGxnVwGqflIIc+m5hqDDYBHEZgiS+Upx2PalNgl8zUDjbRI4ByFK8YxjMFGlJKqthRFqp/P2m56rTwy4DJjNC+4SmyxY3QU7wkXHRX1Jn4XKGwazkvTfvCBBQiHs7wr08Qsf3PZA==
 POHeader Token User: itech2
PO Header Identity:PO-90067-1
------------------------
-------- 10/29/2015 3:34:57 PM --------
Purchase Order item created successfully PO Item Identity: PO-90067-1 Original PO No is 92371
------------------------
